%YAML 1.1
%TAG !u! tag:unity3d.com,2011:
--- !u!1 &557960849366087410
GameObject:
  m_ObjectHideFlags: 0
  m_CorrespondingSourceObject: {fileID: 0}
  m_PrefabInstance: {fileID: 0}
  m_PrefabAsset: {fileID: 0}
  serializedVersion: 6
  m_Component:
  - component: {fileID: 557960849366087408}
  - component: {fileID: 557960849366087411}
  - component: {fileID: 557960849366087409}
  m_Layer: 0
  m_Name: FluidSim
  m_TagString: Untagged
  m_Icon: {fileID: 0}
  m_NavMeshLayer: 0
  m_StaticEditorFlags: 0
  m_IsActive: 1
--- !u!4 &557960849366087408
Transform:
  m_ObjectHideFlags: 0
  m_CorrespondingSourceObject: {fileID: 0}
  m_PrefabInstance: {fileID: 0}
  m_PrefabAsset: {fileID: 0}
  m_GameObject: {fileID: 557960849366087410}
  m_LocalRotation: {x: 0, y: 0, z: 0, w: 1}
  m_LocalPosition: {x: 0.5, y: 0.5, z: 0}
  m_LocalScale: {x: 0, y: 0, z: 1}
  m_Children: []
  m_Father: {fileID: 0}
  m_RootOrder: 0
  m_LocalEulerAnglesHint: {x: 0, y: 0, z: 0}
--- !u!131 &557960849366087411
GUITexture:
  m_ObjectHideFlags: 0
  m_CorrespondingSourceObject: {fileID: 0}
  m_PrefabInstance: {fileID: 0}
  m_PrefabAsset: {fileID: 0}
  m_GameObject: {fileID: 557960849366087410}
  m_Enabled: 1
  m_Texture: {fileID: 0}
  m_Color: {r: 0.5, g: 0.5, b: 0.5, a: 0.5}
  m_PixelInset:
    serializedVersion: 2
    x: -256
    y: -256
    width: 512
    height: 512
  m_LeftBorder: 0
  m_RightBorder: 0
  m_TopBorder: 0
  m_BottomBorder: 0
--- !u!114 &557960849366087409
MonoBehaviour:
  m_ObjectHideFlags: 0
  m_CorrespondingSourceObject: {fileID: 0}
  m_PrefabInstance: {fileID: 0}
  m_PrefabAsset: {fileID: 0}
  m_GameObject: {fileID: 557960849366087410}
  m_Enabled: 1
  m_EditorHideFlags: 0
  m_Script: {fileID: 11500000, guid: c92750c9d16225047ba06824c8c4f2e5, type: 3}
  m_Name: 
  m_EditorClassIdentifier: 
  m_fluidColor: {r: 1, g: 0, b: 0, a: 1}
  m_obstacleColor: {r: 1, g: 1, b: 1, a: 1}
  m_guiMat: {fileID: 2100000, guid: 229dd8ae0f4c09b42b2e04d481aa5be2, type: 2}
  m_advectMat: {fileID: 2100000, guid: 3f34f12aff931564887e9c22cb6b76c4, type: 2}
  m_buoyancyMat: {fileID: 2100000, guid: 579b27956d9f9934980c3a53e430a66c, type: 2}
  m_divergenceMat: {fileID: 2100000, guid: 11101c012000f484c8e44255f87e5359, type: 2}
  m_jacobiMat: {fileID: 2100000, guid: 08995df0a70a7dd4daf3998e4e10a5d2, type: 2}
  m_impluseMat: {fileID: 2100000, guid: d216087604fee704d99189eb141fbfad, type: 2}
  m_gradientMat: {fileID: 2100000, guid: d69b271c118913946aafd0000354e0e3, type: 2}
  m_obstaclesMat: {fileID: 2100000, guid: 9f391497ee0c5dd43b97ef5c9726bfb0, type: 2}
